2006-05-26 09:48 +0000 [r544852]  binner

	* branches/KDE/3.5/kdevelop/languages/ruby/doc/ruby_bugs.toc: fix
	  URL

2006-07-23 13:48 +0000 [r565444]  coolo

	* branches/KDE/3.5/kdevelop/configure.in.in: preparing KDE 3.5.4

2006-07-23 13:57 +0000 [r565455]  coolo

	* branches/KDE/3.5/kdevelop/kdevelop.lsm: preparing KDE 3.5.4

