------------------------------------------------------------------------
r1087471 | scripty | 2010-02-09 04:14:14 +0000 (Tue, 09 Feb 2010) | 1 line

SVN_SILENT made messages (.desktop file)
------------------------------------------------------------------------
r1087851 | lueck | 2010-02-09 17:19:12 +0000 (Tue, 09 Feb 2010) | 1 line

doc backport from trunk
------------------------------------------------------------------------
r1092444 | ternisien | 2010-02-18 22:55:46 +0000 (Thu, 18 Feb 2010) | 1 line

Clean KDEAdmin 4.4 branch as well. KSysV, Lilo Config and KDat have been removed
------------------------------------------------------------------------
